Space-Time
…
tbs_spt = complete_spacetime_cube(tbs_spt)

tbs_spt

spacetime ────

Context:`data`

51 locations `h3_address`

87 time periods `century`

── data context ────────────────────────────────────────────────────────────────

# A tibble: 4,437 × 3
   century h3_address          n
 *   <dbl> <chr>           <int>
 1   -6800 872d8d148ffffff     0
 2   -6800 872d8d149ffffff     0
 3   -6800 872d8d14dffffff     0
 4   -6800 872d8d169ffffff     0
 5   -6800 872d8d16effffff     0
 6   -6800 872d8da10ffffff     0
 7   -6800 872d8da11ffffff     0
 8   -6800 872d8da15ffffff     0
 9   -6800 872d8da16ffffff     0
10   -6800 872d8da1effffff     0
# … with 4,427 more rows
# ℹ Use `print(n = ...)` to see more rows
…
