SPAG - LCP Survey
…
Tidy

Code

# prepare for analysis
# 1: add category column
sites = site_category(sites_raw, "size_ha")

Simple feature collection with 1531 features and 14 fields
Geometry type: POINT
Dimension:     XY
Bounding box:  xmin: 389264.6 ymin: 4053883 xmax: 417170.9 ymax: 4076615
Projected CRS: WGS 84 / UTM zone 37N
# A tibble: 1,531 × 15
   id     size_ha start…¹ end_d…² source code   from    to time  time_…³ time_…⁴
 * <chr>    <dbl>   <dbl>   <dbl> <chr>  <chr> <dbl> <dbl> <chr>   <dbl>   <dbl>
 1 LCP_2…    2.01   -3600   -3000 Wilki… LCP   -3600 -3000 -310…   -3100   -3050
 2 LCP_2…    2.81   -3600   -2600 Wilki… LCP   -3600 -2600 -310…   -3100   -3050
 3 LCP_2…    1.04   -3600   -2600 Wilki… LCP   -3600 -2600 -310…   -3100   -3050
 4 LCP_3…    0.16   -3600   -3000 Wilki… LCP   -3600 -3000 -310…   -3100   -3050
 5 LCP_4…    4      -3600   -2600 Wilki… LCP   -3600 -2600 -310…   -3100   -3050
 6 LCP_4…    1.69   -3600   -2600 Wilki… LCP   -3600 -2600 -310…   -3100   -3050
 7 LCP_5…    0.97   -3600   -2600 Wilki… LCP   -3600 -2600 -310…   -3100   -3050
 8 LCP_5…    0.91   -3600   -3000 Wilki… LCP   -3600 -3000 -310…   -3100   -3050
 9 LCP_5…    2.32   -3600   -2600 Wilki… LCP   -3600 -2600 -310…   -3100   -3050
10 LCP_5…    3.05   -3600   -3000 Wilki… LCP   -3600 -3000 -310…   -3100   -3050
# … with 1,521 more rows, 4 more variables: prob <dbl>, dist <dbl>,
#   geometry <POINT [m]>, category <fct>, and abbreviated variable names
#   ¹​start_date, ²​end_date, ³​time_start, ⁴​time_end
# ℹ Use `print(n = ...)` to see more rows, and `colnames()` to see all variable names
…
